2017-01-17 17:21:54,354 INFO [com.stsing.job.JobRedisCache] - get data from redis  synchronize to oracle
2017-01-17 17:21:55,962 ERROR [com.stsing.jedis.JedisClusterUtil] - jedisCluster number : 12
2017-01-17 17:21:56,150 INFO [com.stsing.jedis.JedisClusterStsingUtil] - 12.99.108.171:7002
2017-01-17 17:21:56,181 INFO [com.stsing.jedis.JedisClusterStsingUtil] - 12.99.108.172:7005
2017-01-17 17:21:56,181 INFO [com.stsing.jedis.JedisClusterStsingUtil] - 12.99.108.171:7003
2017-01-17 17:21:56,197 INFO [com.stsing.jedis.JedisClusterStsingUtil] - 12.99.108.171:7004
2017-01-17 17:21:56,197 INFO [com.stsing.jedis.JedisClusterStsingUtil] - 12.99.108.172:7003
2017-01-17 17:21:56,197 INFO [com.stsing.jedis.JedisClusterStsingUtil] - 12.99.108.172:7004
2017-01-17 17:21:56,197 INFO [com.stsing.jedis.JedisClusterStsingUtil] - 12.99.108.171:7005
2017-01-17 17:21:56,212 INFO [com.stsing.jedis.JedisClusterStsingUtil] - 12.99.108.172:7000
2017-01-17 17:21:56,212 INFO [com.stsing.jedis.JedisClusterStsingUtil] - 12.99.108.172:7002
2017-01-17 17:21:56,228 INFO [com.stsing.jedis.JedisClusterStsingUtil] - 12.99.108.172:7001
2017-01-17 17:21:56,228 INFO [com.stsing.jedis.JedisClusterStsingUtil] - 12.99.108.171:7000
2017-01-17 17:21:56,243 INFO [com.stsing.jedis.JedisClusterStsingUtil] - 12.99.108.171:7001
2017-01-17 17:21:56,337 INFO [com.stsing.jedis.JedisClusterStsingUtil] - 12.99.108.171:7002
2017-01-17 17:21:56,337 INFO [com.stsing.jedis.JedisClusterStsingUtil] - 12.99.108.172:7005
2017-01-17 17:21:56,337 INFO [com.stsing.jedis.JedisClusterStsingUtil] - 12.99.108.171:7003
2017-01-17 17:21:56,337 INFO [com.stsing.jedis.JedisClusterStsingUtil] - 12.99.108.171:7004
2017-01-17 17:21:56,337 INFO [com.stsing.jedis.JedisClusterStsingUtil] - 12.99.108.172:7003
2017-01-17 17:21:56,337 INFO [com.stsing.jedis.JedisClusterStsingUtil] - 12.99.108.172:7004
2017-01-17 17:21:56,337 INFO [com.stsing.jedis.JedisClusterStsingUtil] - 12.99.108.171:7005
2017-01-17 17:21:56,337 INFO [com.stsing.jedis.JedisClusterStsingUtil] - 12.99.108.172:7000
2017-01-17 17:21:56,337 INFO [com.stsing.jedis.JedisClusterStsingUtil] - 12.99.108.172:7002
2017-01-17 17:21:56,337 INFO [com.stsing.jedis.JedisClusterStsingUtil] - 12.99.108.172:7001
2017-01-17 17:21:56,337 INFO [com.stsing.jedis.JedisClusterStsingUtil] - 12.99.108.171:7000
2017-01-17 17:21:56,337 INFO [com.stsing.jedis.JedisClusterStsingUtil] - 12.99.108.171:7001
2017-01-17 17:21:56,353 INFO [com.stsing.jedis.JedisClusterStsingUtil] - 12.99.108.171:7002
2017-01-17 17:21:56,353 INFO [com.stsing.jedis.JedisClusterStsingUtil] - 12.99.108.172:7005
2017-01-17 17:21:56,353 INFO [com.stsing.jedis.JedisClusterStsingUtil] - 12.99.108.171:7003
2017-01-17 17:21:56,353 INFO [com.stsing.jedis.JedisClusterStsingUtil] - 12.99.108.171:7004
2017-01-17 17:21:56,353 INFO [com.stsing.jedis.JedisClusterStsingUtil] - 12.99.108.172:7003
2017-01-17 17:21:56,353 INFO [com.stsing.jedis.JedisClusterStsingUtil] - 12.99.108.172:7004
2017-01-17 17:21:56,353 INFO [com.stsing.jedis.JedisClusterStsingUtil] - 12.99.108.171:7005
2017-01-17 17:21:56,353 INFO [com.stsing.jedis.JedisClusterStsingUtil] - 12.99.108.172:7000
2017-01-17 17:21:56,353 INFO [com.stsing.jedis.JedisClusterStsingUtil] - 12.99.108.172:7002
2017-01-17 17:21:56,353 INFO [com.stsing.jedis.JedisClusterStsingUtil] - 12.99.108.172:7001
2017-01-17 17:21:56,353 INFO [com.stsing.jedis.JedisClusterStsingUtil] - 12.99.108.171:7000
2017-01-17 17:21:56,353 INFO [com.stsing.jedis.JedisClusterStsingUtil] - 12.99.108.171:7001
2017-01-17 17:21:56,368 INFO [com.stsing.jedis.JedisClusterStsingUtil] - 12.99.108.171:7002
2017-01-17 17:21:56,368 INFO [com.stsing.jedis.JedisClusterStsingUtil] - 12.99.108.172:7005
2017-01-17 17:21:56,368 INFO [com.stsing.jedis.JedisClusterStsingUtil] - 12.99.108.171:7003
2017-01-17 17:21:56,368 INFO [com.stsing.jedis.JedisClusterStsingUtil] - 12.99.108.171:7004
2017-01-17 17:21:56,368 INFO [com.stsing.jedis.JedisClusterStsingUtil] - 12.99.108.172:7003
2017-01-17 17:21:56,368 INFO [com.stsing.jedis.JedisClusterStsingUtil] - 12.99.108.172:7004
2017-01-17 17:21:56,368 INFO [com.stsing.jedis.JedisClusterStsingUtil] - 12.99.108.171:7005
2017-01-17 17:21:56,368 INFO [com.stsing.jedis.JedisClusterStsingUtil] - 12.99.108.172:7000
2017-01-17 17:21:56,368 INFO [com.stsing.jedis.JedisClusterStsingUtil] - 12.99.108.172:7002
2017-01-17 17:21:56,368 INFO [com.stsing.jedis.JedisClusterStsingUtil] - 12.99.108.172:7001
2017-01-17 17:21:56,368 INFO [com.stsing.jedis.JedisClusterStsingUtil] - 12.99.108.171:7000
2017-01-17 17:21:56,368 INFO [com.stsing.jedis.JedisClusterStsingUtil] - 12.99.108.171:7001
2017-01-17 17:21:56,368 INFO [com.stsing.jedis.JedisClusterStsingUtil] - 12.99.108.171:7002
2017-01-17 17:21:56,368 INFO [com.stsing.jedis.JedisClusterStsingUtil] - 12.99.108.172:7005
2017-01-17 17:21:56,368 INFO [com.stsing.jedis.JedisClusterStsingUtil] - 12.99.108.171:7003
2017-01-17 17:21:56,368 INFO [com.stsing.jedis.JedisClusterStsingUtil] - 12.99.108.171:7004
2017-01-17 17:21:56,368 INFO [com.stsing.jedis.JedisClusterStsingUtil] - 12.99.108.172:7003
2017-01-17 17:21:56,368 INFO [com.stsing.jedis.JedisClusterStsingUtil] - 12.99.108.172:7004
2017-01-17 17:21:56,368 INFO [com.stsing.jedis.JedisClusterStsingUtil] - 12.99.108.171:7005
2017-01-17 17:21:56,368 INFO [com.stsing.jedis.JedisClusterStsingUtil] - 12.99.108.172:7000
2017-01-17 17:21:56,368 INFO [com.stsing.jedis.JedisClusterStsingUtil] - 12.99.108.172:7002
2017-01-17 17:21:56,368 INFO [com.stsing.jedis.JedisClusterStsingUtil] - 12.99.108.172:7001
2017-01-17 17:21:56,368 INFO [com.stsing.jedis.JedisClusterStsingUtil] - 12.99.108.171:7000
2017-01-17 17:21:56,368 INFO [com.stsing.jedis.JedisClusterStsingUtil] - 12.99.108.171:7001
2017-01-17 17:21:56,384 INFO [com.stsing.jedis.JedisClusterStsingUtil] - 12.99.108.171:7002
2017-01-17 17:21:56,384 INFO [com.stsing.jedis.JedisClusterStsingUtil] - 12.99.108.172:7005
2017-01-17 17:21:56,384 INFO [com.stsing.jedis.JedisClusterStsingUtil] - 12.99.108.171:7003
2017-01-17 17:21:56,384 INFO [com.stsing.jedis.JedisClusterStsingUtil] - 12.99.108.171:7004
2017-01-17 17:21:56,384 INFO [com.stsing.jedis.JedisClusterStsingUtil] - 12.99.108.172:7003
2017-01-17 17:21:56,384 INFO [com.stsing.jedis.JedisClusterStsingUtil] - 12.99.108.172:7004
2017-01-17 17:21:56,384 INFO [com.stsing.jedis.JedisClusterStsingUtil] - 12.99.108.171:7005
2017-01-17 17:21:56,384 INFO [com.stsing.jedis.JedisClusterStsingUtil] - 12.99.108.172:7000
2017-01-17 17:21:56,384 INFO [com.stsing.jedis.JedisClusterStsingUtil] - 12.99.108.172:7002
2017-01-17 17:21:56,384 INFO [com.stsing.jedis.JedisClusterStsingUtil] - 12.99.108.172:7001
2017-01-17 17:21:56,384 INFO [com.stsing.jedis.JedisClusterStsingUtil] - 12.99.108.171:7000
2017-01-17 17:21:56,384 INFO [com.stsing.jedis.JedisClusterStsingUtil] - 12.99.108.171:7001
2017-01-17 17:21:56,399 INFO [com.stsing.jedis.JedisClusterStsingUtil] - 12.99.108.171:7002
2017-01-17 17:21:56,399 INFO [com.stsing.jedis.JedisClusterStsingUtil] - 12.99.108.172:7005
2017-01-17 17:21:56,399 INFO [com.stsing.jedis.JedisClusterStsingUtil] - 12.99.108.171:7003
2017-01-17 17:21:56,399 INFO [com.stsing.jedis.JedisClusterStsingUtil] - 12.99.108.171:7004
2017-01-17 17:21:56,399 INFO [com.stsing.jedis.JedisClusterStsingUtil] - 12.99.108.172:7003
2017-01-17 17:21:56,399 INFO [com.stsing.jedis.JedisClusterStsingUtil] - 12.99.108.172:7004
2017-01-17 17:21:56,399 INFO [com.stsing.jedis.JedisClusterStsingUtil] - 12.99.108.171:7005
2017-01-17 17:21:56,399 INFO [com.stsing.jedis.JedisClusterStsingUtil] - 12.99.108.172:7000
2017-01-17 17:21:56,399 INFO [com.stsing.jedis.JedisClusterStsingUtil] - 12.99.108.172:7002
2017-01-17 17:21:56,399 INFO [com.stsing.jedis.JedisClusterStsingUtil] - 12.99.108.172:7001
2017-01-17 17:21:56,399 INFO [com.stsing.jedis.JedisClusterStsingUtil] - 12.99.108.171:7000
2017-01-17 17:21:56,399 INFO [com.stsing.jedis.JedisClusterStsingUtil] - 12.99.108.171:7001
2017-01-17 17:21:56,415 INFO [com.stsing.jedis.JedisClusterStsingUtil] - 12.99.108.171:7002
2017-01-17 17:21:56,415 INFO [com.stsing.jedis.JedisClusterStsingUtil] - 12.99.108.172:7005
2017-01-17 17:21:56,415 INFO [com.stsing.jedis.JedisClusterStsingUtil] - 12.99.108.171:7003
2017-01-17 17:21:56,415 INFO [com.stsing.jedis.JedisClusterStsingUtil] - 12.99.108.171:7004
2017-01-17 17:21:56,415 INFO [com.stsing.jedis.JedisClusterStsingUtil] - 12.99.108.172:7003
2017-01-17 17:21:56,415 INFO [com.stsing.jedis.JedisClusterStsingUtil] - 12.99.108.172:7004
2017-01-17 17:21:56,415 INFO [com.stsing.jedis.JedisClusterStsingUtil] - 12.99.108.171:7005
2017-01-17 17:21:56,415 INFO [com.stsing.jedis.JedisClusterStsingUtil] - 12.99.108.172:7000
2017-01-17 17:21:56,415 INFO [com.stsing.jedis.JedisClusterStsingUtil] - 12.99.108.172:7002
2017-01-17 17:21:56,415 INFO [com.stsing.jedis.JedisClusterStsingUtil] - 12.99.108.172:7001
2017-01-17 17:21:56,415 INFO [com.stsing.jedis.JedisClusterStsingUtil] - 12.99.108.171:7000
2017-01-17 17:21:56,415 INFO [com.stsing.jedis.JedisClusterStsingUtil] - 12.99.108.171:7001
2017-01-17 17:21:56,431 INFO [com.stsing.jedis.JedisClusterStsingUtil] - 12.99.108.171:7002
2017-01-17 17:21:56,431 INFO [com.stsing.jedis.JedisClusterStsingUtil] - 12.99.108.172:7005
2017-01-17 17:21:56,431 INFO [com.stsing.jedis.JedisClusterStsingUtil] - 12.99.108.171:7003
2017-01-17 17:21:56,431 INFO [com.stsing.jedis.JedisClusterStsingUtil] - 12.99.108.171:7004
2017-01-17 17:21:56,431 INFO [com.stsing.jedis.JedisClusterStsingUtil] - 12.99.108.172:7003
2017-01-17 17:21:56,431 INFO [com.stsing.jedis.JedisClusterStsingUtil] - 12.99.108.172:7004
2017-01-17 17:21:56,431 INFO [com.stsing.jedis.JedisClusterStsingUtil] - 12.99.108.171:7005
2017-01-17 17:21:56,431 INFO [com.stsing.jedis.JedisClusterStsingUtil] - 12.99.108.172:7000
2017-01-17 17:21:56,431 INFO [com.stsing.jedis.JedisClusterStsingUtil] - 12.99.108.172:7002
2017-01-17 17:21:56,431 INFO [com.stsing.jedis.JedisClusterStsingUtil] - 12.99.108.172:7001
2017-01-17 17:21:56,431 INFO [com.stsing.jedis.JedisClusterStsingUtil] - 12.99.108.171:7000
2017-01-17 17:21:56,431 INFO [com.stsing.jedis.JedisClusterStsingUtil] - 12.99.108.171:7001
2017-01-17 17:21:56,446 INFO [com.stsing.jedis.JedisClusterStsingUtil] - 12.99.108.171:7002
2017-01-17 17:21:56,446 INFO [com.stsing.jedis.JedisClusterStsingUtil] - 12.99.108.172:7005
2017-01-17 17:21:56,446 INFO [com.stsing.jedis.JedisClusterStsingUtil] - 12.99.108.171:7003
2017-01-17 17:21:56,446 INFO [com.stsing.jedis.JedisClusterStsingUtil] - 12.99.108.171:7004
2017-01-17 17:21:56,446 INFO [com.stsing.jedis.JedisClusterStsingUtil] - 12.99.108.172:7003
2017-01-17 17:21:56,446 INFO [com.stsing.jedis.JedisClusterStsingUtil] - 12.99.108.172:7004
2017-01-17 17:21:56,446 INFO [com.stsing.jedis.JedisClusterStsingUtil] - 12.99.108.171:7005
2017-01-17 17:21:56,446 INFO [com.stsing.jedis.JedisClusterStsingUtil] - 12.99.108.172:7000
2017-01-17 17:21:56,446 INFO [com.stsing.jedis.JedisClusterStsingUtil] - 12.99.108.172:7002
2017-01-17 17:21:56,446 INFO [com.stsing.jedis.JedisClusterStsingUtil] - 12.99.108.172:7001
2017-01-17 17:21:56,446 INFO [com.stsing.jedis.JedisClusterStsingUtil] - 12.99.108.171:7000
2017-01-17 17:21:56,446 INFO [com.stsing.jedis.JedisClusterStsingUtil] - 12.99.108.171:7001
2017-01-17 17:21:56,462 INFO [com.stsing.jedis.JedisClusterStsingUtil] - 12.99.108.171:7002
2017-01-17 17:21:56,462 INFO [com.stsing.jedis.JedisClusterStsingUtil] - 12.99.108.172:7005
2017-01-17 17:21:56,462 INFO [com.stsing.jedis.JedisClusterStsingUtil] - 12.99.108.171:7003
2017-01-17 17:21:56,462 INFO [com.stsing.jedis.JedisClusterStsingUtil] - 12.99.108.171:7004
2017-01-17 17:21:56,462 INFO [com.stsing.jedis.JedisClusterStsingUtil] - 12.99.108.172:7003
2017-01-17 17:21:56,462 INFO [com.stsing.jedis.JedisClusterStsingUtil] - 12.99.108.172:7004
2017-01-17 17:21:56,462 INFO [com.stsing.jedis.JedisClusterStsingUtil] - 12.99.108.171:7005
2017-01-17 17:21:56,462 INFO [com.stsing.jedis.JedisClusterStsingUtil] - 12.99.108.172:7000
2017-01-17 17:21:56,462 INFO [com.stsing.jedis.JedisClusterStsingUtil] - 12.99.108.172:7002
2017-01-17 17:21:56,462 INFO [com.stsing.jedis.JedisClusterStsingUtil] - 12.99.108.172:7001
2017-01-17 17:21:56,462 INFO [com.stsing.jedis.JedisClusterStsingUtil] - 12.99.108.171:7000
2017-01-17 17:21:56,462 INFO [com.stsing.jedis.JedisClusterStsingUtil] - 12.99.108.171:7001
2017-01-17 17:21:56,477 INFO [com.stsing.jedis.JedisClusterStsingUtil] - 12.99.108.171:7002
2017-01-17 17:21:56,477 INFO [com.stsing.jedis.JedisClusterStsingUtil] - 12.99.108.172:7005
2017-01-17 17:21:56,477 INFO [com.stsing.jedis.JedisClusterStsingUtil] - 12.99.108.171:7003
2017-01-17 17:21:56,477 INFO [com.stsing.jedis.JedisClusterStsingUtil] - 12.99.108.171:7004
2017-01-17 17:21:56,477 INFO [com.stsing.jedis.JedisClusterStsingUtil] - 12.99.108.172:7003
2017-01-17 17:21:56,477 INFO [com.stsing.jedis.JedisClusterStsingUtil] - 12.99.108.172:7004
2017-01-17 17:21:56,477 INFO [com.stsing.jedis.JedisClusterStsingUtil] - 12.99.108.171:7005
2017-01-17 17:21:56,477 INFO [com.stsing.jedis.JedisClusterStsingUtil] - 12.99.108.172:7000
2017-01-17 17:21:56,477 INFO [com.stsing.jedis.JedisClusterStsingUtil] - 12.99.108.172:7002
2017-01-17 17:21:56,477 INFO [com.stsing.jedis.JedisClusterStsingUtil] - 12.99.108.172:7001
2017-01-17 17:21:56,477 INFO [com.stsing.jedis.JedisClusterStsingUtil] - 12.99.108.171:7000
2017-01-17 17:21:56,477 INFO [com.stsing.jedis.JedisClusterStsingUtil] - 12.99.108.171:7001
2017-01-17 17:21:56,493 INFO [com.stsing.jedis.JedisClusterStsingUtil] - 12.99.108.171:7002
2017-01-17 17:21:56,493 INFO [com.stsing.jedis.JedisClusterStsingUtil] - 12.99.108.172:7005
2017-01-17 17:21:56,493 INFO [com.stsing.jedis.JedisClusterStsingUtil] - 12.99.108.171:7003
2017-01-17 17:21:56,493 INFO [com.stsing.jedis.JedisClusterStsingUtil] - 12.99.108.171:7004
2017-01-17 17:21:56,493 INFO [com.stsing.jedis.JedisClusterStsingUtil] - 12.99.108.172:7003
2017-01-17 17:21:56,493 INFO [com.stsing.jedis.JedisClusterStsingUtil] - 12.99.108.172:7004
2017-01-17 17:21:56,493 INFO [com.stsing.jedis.JedisClusterStsingUtil] - 12.99.108.171:7005
2017-01-17 17:21:56,493 INFO [com.stsing.jedis.JedisClusterStsingUtil] - 12.99.108.172:7000
2017-01-17 17:21:56,493 INFO [com.stsing.jedis.JedisClusterStsingUtil] - 12.99.108.172:7002
2017-01-17 17:21:56,493 INFO [com.stsing.jedis.JedisClusterStsingUtil] - 12.99.108.172:7001
2017-01-17 17:21:56,493 INFO [com.stsing.jedis.JedisClusterStsingUtil] - 12.99.108.171:7000
2017-01-17 17:21:56,493 INFO [com.stsing.jedis.JedisClusterStsingUtil] - 12.99.108.171:7001
2017-01-17 17:21:56,493 INFO [com.stsing.jedis.JedisClusterStsingUtil] - 12.99.108.171:7002
2017-01-17 17:21:56,509 INFO [com.stsing.jedis.JedisClusterStsingUtil] - 12.99.108.172:7005
2017-01-17 17:21:56,509 INFO [com.stsing.jedis.JedisClusterStsingUtil] - 12.99.108.171:7003
2017-01-17 17:21:56,509 INFO [com.stsing.jedis.JedisClusterStsingUtil] - 12.99.108.171:7004
2017-01-17 17:21:56,509 INFO [com.stsing.jedis.JedisClusterStsingUtil] - 12.99.108.172:7003
2017-01-17 17:21:56,509 INFO [com.stsing.jedis.JedisClusterStsingUtil] - 12.99.108.172:7004
2017-01-17 17:21:56,509 INFO [com.stsing.jedis.JedisClusterStsingUtil] - 12.99.108.171:7005
2017-01-17 17:21:56,509 INFO [com.stsing.jedis.JedisClusterStsingUtil] - 12.99.108.172:7000
2017-01-17 17:21:56,509 INFO [com.stsing.jedis.JedisClusterStsingUtil] - 12.99.108.172:7002
2017-01-17 17:21:56,509 INFO [com.stsing.jedis.JedisClusterStsingUtil] - 12.99.108.172:7001
2017-01-17 17:21:56,509 INFO [com.stsing.jedis.JedisClusterStsingUtil] - 12.99.108.171:7000
2017-01-17 17:21:56,509 INFO [com.stsing.jedis.JedisClusterStsingUtil] - 12.99.108.171:7001
2017-01-17 17:21:56,509 INFO [com.stsing.jedis.JedisClusterStsingUtil] - 12.99.108.171:7002
2017-01-17 17:21:56,509 INFO [com.stsing.jedis.JedisClusterStsingUtil] - 12.99.108.172:7005
2017-01-17 17:21:56,524 INFO [com.stsing.jedis.JedisClusterStsingUtil] - 12.99.108.171:7003
2017-01-17 17:21:56,524 INFO [com.stsing.jedis.JedisClusterStsingUtil] - 12.99.108.171:7004
2017-01-17 17:21:56,524 INFO [com.stsing.jedis.JedisClusterStsingUtil] - 12.99.108.172:7003
2017-01-17 17:21:56,524 INFO [com.stsing.jedis.JedisClusterStsingUtil] - 12.99.108.172:7004
2017-01-17 17:21:56,524 INFO [com.stsing.jedis.JedisClusterStsingUtil] - 12.99.108.171:7005
2017-01-17 17:21:56,524 INFO [com.stsing.jedis.JedisClusterStsingUtil] - 12.99.108.172:7000
2017-01-17 17:21:56,524 INFO [com.stsing.jedis.JedisClusterStsingUtil] - 12.99.108.172:7002
2017-01-17 17:21:56,524 INFO [com.stsing.jedis.JedisClusterStsingUtil] - 12.99.108.172:7001
2017-01-17 17:21:56,524 INFO [com.stsing.jedis.JedisClusterStsingUtil] - 12.99.108.171:7000
2017-01-17 17:21:56,524 INFO [com.stsing.jedis.JedisClusterStsingUtil] - 12.99.108.171:7001
2017-01-17 17:21:56,961 INFO [com.stsing.job.JobRedisCache] - synchronized success : take 2607 ms
2017-01-17 17:23:05,542 INFO [com.stsing.job.JobRedisCache] - get data from redis  synchronize to oracle
2017-01-17 17:23:06,697 ERROR [com.stsing.jedis.JedisClusterUtil] - jedisCluster number : 12
2017-01-17 17:23:06,791 INFO [com.stsing.jedis.JedisClusterStsingUtil] - hsd1111
2017-01-17 17:23:06,791 INFO [com.stsing.jedis.JedisClusterStsingUtil] - 12.99.108.171:7002
2017-01-17 17:23:06,822 INFO [com.stsing.jedis.JedisClusterStsingUtil] - hsd1111
2017-01-17 17:23:06,822 INFO [com.stsing.jedis.JedisClusterStsingUtil] - 12.99.108.172:7005
2017-01-17 17:23:06,822 INFO [com.stsing.jedis.JedisClusterStsingUtil] - hsd1111
2017-01-17 17:23:06,822 INFO [com.stsing.jedis.JedisClusterStsingUtil] - 12.99.108.171:7003
2017-01-17 17:23:06,822 INFO [com.stsing.jedis.JedisClusterStsingUtil] - hsd1111
2017-01-17 17:23:06,822 INFO [com.stsing.jedis.JedisClusterStsingUtil] - 12.99.108.171:7004
2017-01-17 17:23:06,822 INFO [com.stsing.jedis.JedisClusterStsingUtil] - hsd1111
2017-01-17 17:23:06,822 INFO [com.stsing.jedis.JedisClusterStsingUtil] - 12.99.108.172:7003
2017-01-17 17:23:06,838 INFO [com.stsing.jedis.JedisClusterStsingUtil] - hsd1111
2017-01-17 17:23:06,838 INFO [com.stsing.jedis.JedisClusterStsingUtil] - 12.99.108.172:7004
2017-01-17 17:23:06,838 INFO [com.stsing.jedis.JedisClusterStsingUtil] - hsd1111
2017-01-17 17:23:06,838 INFO [com.stsing.jedis.JedisClusterStsingUtil] - 12.99.108.171:7005
2017-01-17 17:23:06,838 INFO [com.stsing.jedis.JedisClusterStsingUtil] - hsd1111
2017-01-17 17:23:06,838 INFO [com.stsing.jedis.JedisClusterStsingUtil] - 12.99.108.172:7000
2017-01-17 17:23:06,838 INFO [com.stsing.jedis.JedisClusterStsingUtil] - hsd1111
2017-01-17 17:23:06,838 INFO [com.stsing.jedis.JedisClusterStsingUtil] - 12.99.108.172:7002
2017-01-17 17:23:06,854 INFO [com.stsing.jedis.JedisClusterStsingUtil] - hsd1111
2017-01-17 17:23:06,854 INFO [com.stsing.jedis.JedisClusterStsingUtil] - 12.99.108.172:7001
2017-01-17 17:23:06,854 INFO [com.stsing.jedis.JedisClusterStsingUtil] - hsd1111
2017-01-17 17:23:06,854 INFO [com.stsing.jedis.JedisClusterStsingUtil] - 12.99.108.171:7000
2017-01-17 17:23:06,869 INFO [com.stsing.jedis.JedisClusterStsingUtil] - hsd1111
2017-01-17 17:23:06,869 INFO [com.stsing.jedis.JedisClusterStsingUtil] - 12.99.108.171:7001
2017-01-17 17:23:07,025 INFO [com.stsing.jedis.JedisClusterStsingUtil] - hsd1111
2017-01-17 17:23:07,025 INFO [com.stsing.jedis.JedisClusterStsingUtil] - 12.99.108.171:7002
2017-01-17 17:23:07,025 INFO [com.stsing.jedis.JedisClusterStsingUtil] - hsd1111
2017-01-17 17:23:07,025 INFO [com.stsing.jedis.JedisClusterStsingUtil] - 12.99.108.172:7005
2017-01-17 17:23:07,025 INFO [com.stsing.jedis.JedisClusterStsingUtil] - hsd1111
2017-01-17 17:23:07,025 INFO [com.stsing.jedis.JedisClusterStsingUtil] - 12.99.108.171:7003
2017-01-17 17:23:07,025 INFO [com.stsing.jedis.JedisClusterStsingUtil] - hsd1111
2017-01-17 17:23:07,025 INFO [com.stsing.jedis.JedisClusterStsingUtil] - 12.99.108.171:7004
2017-01-17 17:23:07,025 INFO [com.stsing.jedis.JedisClusterStsingUtil] - hsd1111
2017-01-17 17:23:07,025 INFO [com.stsing.jedis.JedisClusterStsingUtil] - 12.99.108.172:7003
2017-01-17 17:23:07,025 INFO [com.stsing.jedis.JedisClusterStsingUtil] - hsd1111
2017-01-17 17:23:07,025 INFO [com.stsing.jedis.JedisClusterStsingUtil] - 12.99.108.172:7004
2017-01-17 17:23:07,025 INFO [com.stsing.jedis.JedisClusterStsingUtil] - hsd1111
2017-01-17 17:23:07,025 INFO [com.stsing.jedis.JedisClusterStsingUtil] - 12.99.108.171:7005
2017-01-17 17:23:07,025 INFO [com.stsing.jedis.JedisClusterStsingUtil] - hsd1111
2017-01-17 17:23:07,025 INFO [com.stsing.jedis.JedisClusterStsingUtil] - 12.99.108.172:7000
2017-01-17 17:23:07,041 INFO [com.stsing.jedis.JedisClusterStsingUtil] - hsd1111
2017-01-17 17:23:07,041 INFO [com.stsing.jedis.JedisClusterStsingUtil] - 12.99.108.172:7002
2017-01-17 17:23:07,041 INFO [com.stsing.jedis.JedisClusterStsingUtil] - hsd1111
2017-01-17 17:23:07,041 INFO [com.stsing.jedis.JedisClusterStsingUtil] - 12.99.108.172:7001
2017-01-17 17:23:07,041 INFO [com.stsing.jedis.JedisClusterStsingUtil] - hsd1111
2017-01-17 17:23:07,041 INFO [com.stsing.jedis.JedisClusterStsingUtil] - 12.99.108.171:7000
2017-01-17 17:23:07,041 INFO [com.stsing.jedis.JedisClusterStsingUtil] - hsd1111
2017-01-17 17:23:07,041 INFO [com.stsing.jedis.JedisClusterStsingUtil] - 12.99.108.171:7001
2017-01-17 17:23:07,041 INFO [com.stsing.jedis.JedisClusterStsingUtil] - hsd1111
2017-01-17 17:23:07,041 INFO [com.stsing.jedis.JedisClusterStsingUtil] - 12.99.108.171:7002
2017-01-17 17:23:07,056 INFO [com.stsing.jedis.JedisClusterStsingUtil] - hsd1111
2017-01-17 17:23:07,056 INFO [com.stsing.jedis.JedisClusterStsingUtil] - 12.99.108.172:7005
2017-01-17 17:23:07,056 INFO [com.stsing.jedis.JedisClusterStsingUtil] - hsd1111
2017-01-17 17:23:07,056 INFO [com.stsing.jedis.JedisClusterStsingUtil] - 12.99.108.171:7003
2017-01-17 17:23:07,056 INFO [com.stsing.jedis.JedisClusterStsingUtil] - hsd1111
2017-01-17 17:23:07,056 INFO [com.stsing.jedis.JedisClusterStsingUtil] - 12.99.108.171:7004
2017-01-17 17:23:07,056 INFO [com.stsing.jedis.JedisClusterStsingUtil] - hsd1111
2017-01-17 17:23:07,056 INFO [com.stsing.jedis.JedisClusterStsingUtil] - 12.99.108.172:7003
2017-01-17 17:23:07,056 INFO [com.stsing.jedis.JedisClusterStsingUtil] - hsd1111
2017-01-17 17:23:07,056 INFO [com.stsing.jedis.JedisClusterStsingUtil] - 12.99.108.172:7004
2017-01-17 17:23:07,056 INFO [com.stsing.jedis.JedisClusterStsingUtil] - hsd1111
2017-01-17 17:23:07,056 INFO [com.stsing.jedis.JedisClusterStsingUtil] - 12.99.108.171:7005
2017-01-17 17:23:07,056 INFO [com.stsing.jedis.JedisClusterStsingUtil] - hsd1111
2017-01-17 17:23:07,056 INFO [com.stsing.jedis.JedisClusterStsingUtil] - 12.99.108.172:7000
2017-01-17 17:23:07,056 INFO [com.stsing.jedis.JedisClusterStsingUtil] - hsd1111
2017-01-17 17:23:07,056 INFO [com.stsing.jedis.JedisClusterStsingUtil] - 12.99.108.172:7002
2017-01-17 17:23:07,056 INFO [com.stsing.jedis.JedisClusterStsingUtil] - hsd1111
2017-01-17 17:23:07,056 INFO [com.stsing.jedis.JedisClusterStsingUtil] - 12.99.108.172:7001
2017-01-17 17:23:07,056 INFO [com.stsing.jedis.JedisClusterStsingUtil] - hsd1111
2017-01-17 17:23:07,056 INFO [com.stsing.jedis.JedisClusterStsingUtil] - 12.99.108.171:7000
2017-01-17 17:23:07,056 INFO [com.stsing.jedis.JedisClusterStsingUtil] - hsd1111
2017-01-17 17:23:07,056 INFO [com.stsing.jedis.JedisClusterStsingUtil] - 12.99.108.171:7001
2017-01-17 17:23:07,072 INFO [com.stsing.jedis.JedisClusterStsingUtil] - hsd1111
2017-01-17 17:23:07,072 INFO [com.stsing.jedis.JedisClusterStsingUtil] - 12.99.108.171:7002
2017-01-17 17:23:07,072 INFO [com.stsing.jedis.JedisClusterStsingUtil] - hsd1111
2017-01-17 17:23:07,072 INFO [com.stsing.jedis.JedisClusterStsingUtil] - 12.99.108.172:7005
2017-01-17 17:23:07,072 INFO [com.stsing.jedis.JedisClusterStsingUtil] - hsd1111
2017-01-17 17:23:07,072 INFO [com.stsing.jedis.JedisClusterStsingUtil] - 12.99.108.171:7003
2017-01-17 17:23:07,072 INFO [com.stsing.jedis.JedisClusterStsingUtil] - hsd1111
2017-01-17 17:23:07,072 INFO [com.stsing.jedis.JedisClusterStsingUtil] - 12.99.108.171:7004
2017-01-17 17:23:07,072 INFO [com.stsing.jedis.JedisClusterStsingUtil] - hsd1111
2017-01-17 17:23:07,072 INFO [com.stsing.jedis.JedisClusterStsingUtil] - 12.99.108.172:7003
2017-01-17 17:23:07,072 INFO [com.stsing.jedis.JedisClusterStsingUtil] - hsd1111
2017-01-17 17:23:07,072 INFO [com.stsing.jedis.JedisClusterStsingUtil] - 12.99.108.172:7004
2017-01-17 17:23:07,072 INFO [com.stsing.jedis.JedisClusterStsingUtil] - hsd1111
2017-01-17 17:23:07,072 INFO [com.stsing.jedis.JedisClusterStsingUtil] - 12.99.108.171:7005
2017-01-17 17:23:07,072 INFO [com.stsing.jedis.JedisClusterStsingUtil] - hsd1111
2017-01-17 17:23:07,072 INFO [com.stsing.jedis.JedisClusterStsingUtil] - 12.99.108.172:7000
2017-01-17 17:23:07,072 INFO [com.stsing.jedis.JedisClusterStsingUtil] - hsd1111
2017-01-17 17:23:07,072 INFO [com.stsing.jedis.JedisClusterStsingUtil] - 12.99.108.172:7002
2017-01-17 17:23:07,072 INFO [com.stsing.jedis.JedisClusterStsingUtil] - hsd1111
2017-01-17 17:23:07,072 INFO [com.stsing.jedis.JedisClusterStsingUtil] - 12.99.108.172:7001
2017-01-17 17:23:07,072 INFO [com.stsing.jedis.JedisClusterStsingUtil] - hsd1111
2017-01-17 17:23:07,072 INFO [com.stsing.jedis.JedisClusterStsingUtil] - 12.99.108.171:7000
2017-01-17 17:23:07,072 INFO [com.stsing.jedis.JedisClusterStsingUtil] - hsd1111
2017-01-17 17:23:07,072 INFO [com.stsing.jedis.JedisClusterStsingUtil] - 12.99.108.171:7001
2017-01-17 17:23:07,088 INFO [com.stsing.jedis.JedisClusterStsingUtil] - hsd1111
2017-01-17 17:23:07,088 INFO [com.stsing.jedis.JedisClusterStsingUtil] - 12.99.108.171:7002
2017-01-17 17:23:07,088 INFO [com.stsing.jedis.JedisClusterStsingUtil] - hsd1111
2017-01-17 17:23:07,088 INFO [com.stsing.jedis.JedisClusterStsingUtil] - 12.99.108.172:7005
2017-01-17 17:23:07,088 INFO [com.stsing.jedis.JedisClusterStsingUtil] - hsd1111
2017-01-17 17:23:07,088 INFO [com.stsing.jedis.JedisClusterStsingUtil] - 12.99.108.171:7003
2017-01-17 17:23:07,088 INFO [com.stsing.jedis.JedisClusterStsingUtil] - hsd1111
2017-01-17 17:23:07,088 INFO [com.stsing.jedis.JedisClusterStsingUtil] - 12.99.108.171:7004
2017-01-17 17:23:07,088 INFO [com.stsing.jedis.JedisClusterStsingUtil] - hsd1111
2017-01-17 17:23:07,088 INFO [com.stsing.jedis.JedisClusterStsingUtil] - 12.99.108.172:7003
2017-01-17 17:23:07,088 INFO [com.stsing.jedis.JedisClusterStsingUtil] - hsd1111
2017-01-17 17:23:07,088 INFO [com.stsing.jedis.JedisClusterStsingUtil] - 12.99.108.172:7004
2017-01-17 17:23:07,103 INFO [com.stsing.jedis.JedisClusterStsingUtil] - hsd1111
2017-01-17 17:23:07,103 INFO [com.stsing.jedis.JedisClusterStsingUtil] - 12.99.108.171:7005
2017-01-17 17:23:07,103 INFO [com.stsing.jedis.JedisClusterStsingUtil] - hsd1111
2017-01-17 17:23:07,103 INFO [com.stsing.jedis.JedisClusterStsingUtil] - 12.99.108.172:7000
2017-01-17 17:23:07,103 INFO [com.stsing.jedis.JedisClusterStsingUtil] - hsd1111
2017-01-17 17:23:07,103 INFO [com.stsing.jedis.JedisClusterStsingUtil] - 12.99.108.172:7002
2017-01-17 17:23:07,103 INFO [com.stsing.jedis.JedisClusterStsingUtil] - hsd1111
2017-01-17 17:23:07,103 INFO [com.stsing.jedis.JedisClusterStsingUtil] - 12.99.108.172:7001
2017-01-17 17:23:07,103 INFO [com.stsing.jedis.JedisClusterStsingUtil] - hsd1111
2017-01-17 17:23:07,103 INFO [com.stsing.jedis.JedisClusterStsingUtil] - 12.99.108.171:7000
2017-01-17 17:23:07,103 INFO [com.stsing.jedis.JedisClusterStsingUtil] - hsd1111
2017-01-17 17:23:07,103 INFO [com.stsing.jedis.JedisClusterStsingUtil] - 12.99.108.171:7001
2017-01-17 17:23:07,119 INFO [com.stsing.jedis.JedisClusterStsingUtil] - hsd1111
2017-01-17 17:23:07,119 INFO [com.stsing.jedis.JedisClusterStsingUtil] - 12.99.108.171:7002
2017-01-17 17:23:07,119 INFO [com.stsing.jedis.JedisClusterStsingUtil] - hsd1111
2017-01-17 17:23:07,119 INFO [com.stsing.jedis.JedisClusterStsingUtil] - 12.99.108.172:7005
2017-01-17 17:23:07,119 INFO [com.stsing.jedis.JedisClusterStsingUtil] - hsd1111
2017-01-17 17:23:07,119 INFO [com.stsing.jedis.JedisClusterStsingUtil] - 12.99.108.171:7003
2017-01-17 17:23:07,119 INFO [com.stsing.jedis.JedisClusterStsingUtil] - hsd1111
2017-01-17 17:23:07,119 INFO [com.stsing.jedis.JedisClusterStsingUtil] - 12.99.108.171:7004
2017-01-17 17:23:07,119 INFO [com.stsing.jedis.JedisClusterStsingUtil] - hsd1111
2017-01-17 17:23:07,119 INFO [com.stsing.jedis.JedisClusterStsingUtil] - 12.99.108.172:7003
2017-01-17 17:23:07,119 INFO [com.stsing.jedis.JedisClusterStsingUtil] - hsd1111
2017-01-17 17:23:07,119 INFO [com.stsing.jedis.JedisClusterStsingUtil] - 12.99.108.172:7004
2017-01-17 17:23:07,119 INFO [com.stsing.jedis.JedisClusterStsingUtil] - hsd1111
2017-01-17 17:23:07,119 INFO [com.stsing.jedis.JedisClusterStsingUtil] - 12.99.108.171:7005
2017-01-17 17:23:07,119 INFO [com.stsing.jedis.JedisClusterStsingUtil] - hsd1111
2017-01-17 17:23:07,119 INFO [com.stsing.jedis.JedisClusterStsingUtil] - 12.99.108.172:7000
2017-01-17 17:23:07,119 INFO [com.stsing.jedis.JedisClusterStsingUtil] - hsd1111
2017-01-17 17:23:07,119 INFO [com.stsing.jedis.JedisClusterStsingUtil] - 12.99.108.172:7002
2017-01-17 17:23:07,119 INFO [com.stsing.jedis.JedisClusterStsingUtil] - hsd1111
2017-01-17 17:23:07,119 INFO [com.stsing.jedis.JedisClusterStsingUtil] - 12.99.108.172:7001
2017-01-17 17:23:07,119 INFO [com.stsing.jedis.JedisClusterStsingUtil] - hsd1111
2017-01-17 17:23:07,119 INFO [com.stsing.jedis.JedisClusterStsingUtil] - 12.99.108.171:7000
2017-01-17 17:23:07,119 INFO [com.stsing.jedis.JedisClusterStsingUtil] - hsd1111
2017-01-17 17:23:07,119 INFO [com.stsing.jedis.JedisClusterStsingUtil] - 12.99.108.171:7001
2017-01-17 17:23:07,134 INFO [com.stsing.jedis.JedisClusterStsingUtil] - hsd1111
2017-01-17 17:23:07,134 INFO [com.stsing.jedis.JedisClusterStsingUtil] - 12.99.108.171:7002
2017-01-17 17:23:07,134 INFO [com.stsing.jedis.JedisClusterStsingUtil] - hsd1111
2017-01-17 17:23:07,134 INFO [com.stsing.jedis.JedisClusterStsingUtil] - 12.99.108.172:7005
2017-01-17 17:23:07,134 INFO [com.stsing.jedis.JedisClusterStsingUtil] - hsd1111
2017-01-17 17:23:07,134 INFO [com.stsing.jedis.JedisClusterStsingUtil] - 12.99.108.171:7003
2017-01-17 17:23:07,134 INFO [com.stsing.jedis.JedisClusterStsingUtil] - hsd1111
2017-01-17 17:23:07,134 INFO [com.stsing.jedis.JedisClusterStsingUtil] - 12.99.108.171:7004
2017-01-17 17:23:07,134 INFO [com.stsing.jedis.JedisClusterStsingUtil] - hsd1111
2017-01-17 17:23:07,134 INFO [com.stsing.jedis.JedisClusterStsingUtil] - 12.99.108.172:7003
2017-01-17 17:23:07,134 INFO [com.stsing.jedis.JedisClusterStsingUtil] - hsd1111
2017-01-17 17:23:07,134 INFO [com.stsing.jedis.JedisClusterStsingUtil] - 12.99.108.172:7004
2017-01-17 17:23:07,134 INFO [com.stsing.jedis.JedisClusterStsingUtil] - hsd1111
2017-01-17 17:23:07,134 INFO [com.stsing.jedis.JedisClusterStsingUtil] - 12.99.108.171:7005
2017-01-17 17:23:07,134 INFO [com.stsing.jedis.JedisClusterStsingUtil] - hsd1111
2017-01-17 17:23:07,134 INFO [com.stsing.jedis.JedisClusterStsingUtil] - 12.99.108.172:7000
2017-01-17 17:23:07,134 INFO [com.stsing.jedis.JedisClusterStsingUtil] - hsd1111
2017-01-17 17:23:07,134 INFO [com.stsing.jedis.JedisClusterStsingUtil] - 12.99.108.172:7002
2017-01-17 17:23:07,134 INFO [com.stsing.jedis.JedisClusterStsingUtil] - hsd1111
2017-01-17 17:23:07,134 INFO [com.stsing.jedis.JedisClusterStsingUtil] - 12.99.108.172:7001
2017-01-17 17:23:07,134 INFO [com.stsing.jedis.JedisClusterStsingUtil] - hsd1111
2017-01-17 17:23:07,134 INFO [com.stsing.jedis.JedisClusterStsingUtil] - 12.99.108.171:7000
2017-01-17 17:23:07,134 INFO [com.stsing.jedis.JedisClusterStsingUtil] - hsd1111
2017-01-17 17:23:07,134 INFO [com.stsing.jedis.JedisClusterStsingUtil] - 12.99.108.171:7001
2017-01-17 17:23:07,150 INFO [com.stsing.jedis.JedisClusterStsingUtil] - hsd1111
2017-01-17 17:23:07,150 INFO [com.stsing.jedis.JedisClusterStsingUtil] - 12.99.108.171:7002
2017-01-17 17:23:07,150 INFO [com.stsing.jedis.JedisClusterStsingUtil] - hsd1111
2017-01-17 17:23:07,150 INFO [com.stsing.jedis.JedisClusterStsingUtil] - 12.99.108.172:7005
2017-01-17 17:23:07,166 INFO [com.stsing.jedis.JedisClusterStsingUtil] - hsd1111
2017-01-17 17:23:07,166 INFO [com.stsing.jedis.JedisClusterStsingUtil] - 12.99.108.171:7003
2017-01-17 17:23:07,166 INFO [com.stsing.jedis.JedisClusterStsingUtil] - hsd1111
2017-01-17 17:23:07,166 INFO [com.stsing.jedis.JedisClusterStsingUtil] - 12.99.108.171:7004
2017-01-17 17:23:07,166 INFO [com.stsing.jedis.JedisClusterStsingUtil] - hsd1111
2017-01-17 17:23:07,166 INFO [com.stsing.jedis.JedisClusterStsingUtil] - 12.99.108.172:7003
2017-01-17 17:23:07,166 INFO [com.stsing.jedis.JedisClusterStsingUtil] - hsd1111
2017-01-17 17:23:07,166 INFO [com.stsing.jedis.JedisClusterStsingUtil] - 12.99.108.172:7004
2017-01-17 17:23:07,166 INFO [com.stsing.jedis.JedisClusterStsingUtil] - hsd1111
2017-01-17 17:23:07,166 INFO [com.stsing.jedis.JedisClusterStsingUtil] - 12.99.108.171:7005
2017-01-17 17:23:07,166 INFO [com.stsing.jedis.JedisClusterStsingUtil] - hsd1111
2017-01-17 17:23:07,166 INFO [com.stsing.jedis.JedisClusterStsingUtil] - 12.99.108.172:7000
2017-01-17 17:23:07,166 INFO [com.stsing.jedis.JedisClusterStsingUtil] - hsd1111
2017-01-17 17:23:07,166 INFO [com.stsing.jedis.JedisClusterStsingUtil] - 12.99.108.172:7002
2017-01-17 17:23:07,166 INFO [com.stsing.jedis.JedisClusterStsingUtil] - hsd1111
2017-01-17 17:23:07,166 INFO [com.stsing.jedis.JedisClusterStsingUtil] - 12.99.108.172:7001
2017-01-17 17:23:07,166 INFO [com.stsing.jedis.JedisClusterStsingUtil] - hsd1111
2017-01-17 17:23:07,166 INFO [com.stsing.jedis.JedisClusterStsingUtil] - 12.99.108.171:7000
2017-01-17 17:23:07,166 INFO [com.stsing.jedis.JedisClusterStsingUtil] - hsd1111
2017-01-17 17:23:07,166 INFO [com.stsing.jedis.JedisClusterStsingUtil] - 12.99.108.171:7001
2017-01-17 17:23:07,197 INFO [com.stsing.jedis.JedisClusterStsingUtil] - hsd1111
2017-01-17 17:23:07,197 INFO [com.stsing.jedis.JedisClusterStsingUtil] - 12.99.108.171:7002
2017-01-17 17:23:07,197 INFO [com.stsing.jedis.JedisClusterStsingUtil] - hsd1111
2017-01-17 17:23:07,197 INFO [com.stsing.jedis.JedisClusterStsingUtil] - 12.99.108.172:7005
2017-01-17 17:23:07,197 INFO [com.stsing.jedis.JedisClusterStsingUtil] - hsd1111
2017-01-17 17:23:07,197 INFO [com.stsing.jedis.JedisClusterStsingUtil] - 12.99.108.171:7003
2017-01-17 17:23:07,197 INFO [com.stsing.jedis.JedisClusterStsingUtil] - hsd1111
2017-01-17 17:23:07,197 INFO [com.stsing.jedis.JedisClusterStsingUtil] - 12.99.108.171:7004
2017-01-17 17:23:07,197 INFO [com.stsing.jedis.JedisClusterStsingUtil] - hsd1111
2017-01-17 17:23:07,197 INFO [com.stsing.jedis.JedisClusterStsingUtil] - 12.99.108.172:7003
2017-01-17 17:23:07,197 INFO [com.stsing.jedis.JedisClusterStsingUtil] - hsd1111
2017-01-17 17:23:07,197 INFO [com.stsing.jedis.JedisClusterStsingUtil] - 12.99.108.172:7004
2017-01-17 17:23:07,197 INFO [com.stsing.jedis.JedisClusterStsingUtil] - hsd1111
2017-01-17 17:23:07,197 INFO [com.stsing.jedis.JedisClusterStsingUtil] - 12.99.108.171:7005
2017-01-17 17:23:07,197 INFO [com.stsing.jedis.JedisClusterStsingUtil] - hsd1111
2017-01-17 17:23:07,197 INFO [com.stsing.jedis.JedisClusterStsingUtil] - 12.99.108.172:7000
2017-01-17 17:23:07,212 INFO [com.stsing.jedis.JedisClusterStsingUtil] - hsd1111
2017-01-17 17:23:07,212 INFO [com.stsing.jedis.JedisClusterStsingUtil] - 12.99.108.172:7002
2017-01-17 17:23:07,212 INFO [com.stsing.jedis.JedisClusterStsingUtil] - hsd1111
2017-01-17 17:23:07,212 INFO [com.stsing.jedis.JedisClusterStsingUtil] - 12.99.108.172:7001
2017-01-17 17:23:07,212 INFO [com.stsing.jedis.JedisClusterStsingUtil] - hsd1111
2017-01-17 17:23:07,212 INFO [com.stsing.jedis.JedisClusterStsingUtil] - 12.99.108.171:7000
2017-01-17 17:23:07,212 INFO [com.stsing.jedis.JedisClusterStsingUtil] - hsd1111
2017-01-17 17:23:07,212 INFO [com.stsing.jedis.JedisClusterStsingUtil] - 12.99.108.171:7001
2017-01-17 17:23:07,244 INFO [com.stsing.jedis.JedisClusterStsingUtil] - hsd1111
2017-01-17 17:23:07,244 INFO [com.stsing.jedis.JedisClusterStsingUtil] - 12.99.108.171:7002
2017-01-17 17:23:07,244 INFO [com.stsing.jedis.JedisClusterStsingUtil] - hsd1111
2017-01-17 17:23:07,244 INFO [com.stsing.jedis.JedisClusterStsingUtil] - 12.99.108.172:7005
2017-01-17 17:23:07,244 INFO [com.stsing.jedis.JedisClusterStsingUtil] - hsd1111
2017-01-17 17:23:07,244 INFO [com.stsing.jedis.JedisClusterStsingUtil] - 12.99.108.171:7003
2017-01-17 17:23:07,244 INFO [com.stsing.jedis.JedisClusterStsingUtil] - hsd1111
2017-01-17 17:23:07,244 INFO [com.stsing.jedis.JedisClusterStsingUtil] - 12.99.108.171:7004
2017-01-17 17:23:07,244 INFO [com.stsing.jedis.JedisClusterStsingUtil] - hsd1111
2017-01-17 17:23:07,244 INFO [com.stsing.jedis.JedisClusterStsingUtil] - 12.99.108.172:7003
2017-01-17 17:23:07,244 INFO [com.stsing.jedis.JedisClusterStsingUtil] - hsd1111
2017-01-17 17:23:07,244 INFO [com.stsing.jedis.JedisClusterStsingUtil] - 12.99.108.172:7004
2017-01-17 17:23:07,244 INFO [com.stsing.jedis.JedisClusterStsingUtil] - hsd1111
2017-01-17 17:23:07,244 INFO [com.stsing.jedis.JedisClusterStsingUtil] - 12.99.108.171:7005
2017-01-17 17:23:07,244 INFO [com.stsing.jedis.JedisClusterStsingUtil] - hsd1111
2017-01-17 17:23:07,244 INFO [com.stsing.jedis.JedisClusterStsingUtil] - 12.99.108.172:7000
2017-01-17 17:23:07,244 INFO [com.stsing.jedis.JedisClusterStsingUtil] - hsd1111
2017-01-17 17:23:07,244 INFO [com.stsing.jedis.JedisClusterStsingUtil] - 12.99.108.172:7002
2017-01-17 17:23:07,244 INFO [com.stsing.jedis.JedisClusterStsingUtil] - hsd1111
2017-01-17 17:23:07,244 INFO [com.stsing.jedis.JedisClusterStsingUtil] - 12.99.108.172:7001
2017-01-17 17:23:07,244 INFO [com.stsing.jedis.JedisClusterStsingUtil] - hsd1111
2017-01-17 17:23:07,244 INFO [com.stsing.jedis.JedisClusterStsingUtil] - 12.99.108.171:7000
2017-01-17 17:23:07,244 INFO [com.stsing.jedis.JedisClusterStsingUtil] - hsd1111
2017-01-17 17:23:07,244 INFO [com.stsing.jedis.JedisClusterStsingUtil] - 12.99.108.171:7001
2017-01-17 17:23:07,259 INFO [com.stsing.jedis.JedisClusterStsingUtil] - hsd1111
2017-01-17 17:23:07,259 INFO [com.stsing.jedis.JedisClusterStsingUtil] - 12.99.108.171:7002
2017-01-17 17:23:07,259 INFO [com.stsing.jedis.JedisClusterStsingUtil] - hsd1111
2017-01-17 17:23:07,259 INFO [com.stsing.jedis.JedisClusterStsingUtil] - 12.99.108.172:7005
2017-01-17 17:23:07,259 INFO [com.stsing.jedis.JedisClusterStsingUtil] - hsd1111
2017-01-17 17:23:07,259 INFO [com.stsing.jedis.JedisClusterStsingUtil] - 12.99.108.171:7003
2017-01-17 17:23:07,259 INFO [com.stsing.jedis.JedisClusterStsingUtil] - hsd1111
2017-01-17 17:23:07,259 INFO [com.stsing.jedis.JedisClusterStsingUtil] - 12.99.108.171:7004
2017-01-17 17:23:07,259 INFO [com.stsing.jedis.JedisClusterStsingUtil] - hsd1111
2017-01-17 17:23:07,259 INFO [com.stsing.jedis.JedisClusterStsingUtil] - 12.99.108.172:7003
2017-01-17 17:23:07,259 INFO [com.stsing.jedis.JedisClusterStsingUtil] - hsd1111
2017-01-17 17:23:07,259 INFO [com.stsing.jedis.JedisClusterStsingUtil] - 12.99.108.172:7004
2017-01-17 17:23:07,259 INFO [com.stsing.jedis.JedisClusterStsingUtil] - hsd1111
2017-01-17 17:23:07,259 INFO [com.stsing.jedis.JedisClusterStsingUtil] - 12.99.108.171:7005
2017-01-17 17:23:07,259 INFO [com.stsing.jedis.JedisClusterStsingUtil] - hsd1111
2017-01-17 17:23:07,259 INFO [com.stsing.jedis.JedisClusterStsingUtil] - 12.99.108.172:7000
2017-01-17 17:23:07,275 INFO [com.stsing.jedis.JedisClusterStsingUtil] - hsd1111
2017-01-17 17:23:07,275 INFO [com.stsing.jedis.JedisClusterStsingUtil] - 12.99.108.172:7002
2017-01-17 17:23:07,275 INFO [com.stsing.jedis.JedisClusterStsingUtil] - hsd1111
2017-01-17 17:23:07,275 INFO [com.stsing.jedis.JedisClusterStsingUtil] - 12.99.108.172:7001
2017-01-17 17:23:07,275 INFO [com.stsing.jedis.JedisClusterStsingUtil] - hsd1111
2017-01-17 17:23:07,275 INFO [com.stsing.jedis.JedisClusterStsingUtil] - 12.99.108.171:7000
2017-01-17 17:23:07,275 INFO [com.stsing.jedis.JedisClusterStsingUtil] - hsd1111
2017-01-17 17:23:07,275 INFO [com.stsing.jedis.JedisClusterStsingUtil] - 12.99.108.171:7001
2017-01-17 17:23:07,290 INFO [com.stsing.jedis.JedisClusterStsingUtil] - hsd1111
2017-01-17 17:23:07,290 INFO [com.stsing.jedis.JedisClusterStsingUtil] - 12.99.108.171:7002
2017-01-17 17:23:07,290 INFO [com.stsing.jedis.JedisClusterStsingUtil] - hsd1111
2017-01-17 17:23:07,290 INFO [com.stsing.jedis.JedisClusterStsingUtil] - 12.99.108.172:7005
2017-01-17 17:23:07,290 INFO [com.stsing.jedis.JedisClusterStsingUtil] - hsd1111
2017-01-17 17:23:07,290 INFO [com.stsing.jedis.JedisClusterStsingUtil] - 12.99.108.171:7003
2017-01-17 17:23:07,290 INFO [com.stsing.jedis.JedisClusterStsingUtil] - hsd1111
2017-01-17 17:23:07,290 INFO [com.stsing.jedis.JedisClusterStsingUtil] - 12.99.108.171:7004
2017-01-17 17:23:07,290 INFO [com.stsing.jedis.JedisClusterStsingUtil] - hsd1111
2017-01-17 17:23:07,290 INFO [com.stsing.jedis.JedisClusterStsingUtil] - 12.99.108.172:7003
2017-01-17 17:23:07,290 INFO [com.stsing.jedis.JedisClusterStsingUtil] - hsd1111
2017-01-17 17:23:07,290 INFO [com.stsing.jedis.JedisClusterStsingUtil] - 12.99.108.172:7004
2017-01-17 17:23:07,290 INFO [com.stsing.jedis.JedisClusterStsingUtil] - hsd1111
2017-01-17 17:23:07,290 INFO [com.stsing.jedis.JedisClusterStsingUtil] - 12.99.108.171:7005
2017-01-17 17:23:07,290 INFO [com.stsing.jedis.JedisClusterStsingUtil] - hsd1111
2017-01-17 17:23:07,290 INFO [com.stsing.jedis.JedisClusterStsingUtil] - 12.99.108.172:7000
2017-01-17 17:23:07,290 INFO [com.stsing.jedis.JedisClusterStsingUtil] - hsd1111
2017-01-17 17:23:07,290 INFO [com.stsing.jedis.JedisClusterStsingUtil] - 12.99.108.172:7002
2017-01-17 17:23:07,290 INFO [com.stsing.jedis.JedisClusterStsingUtil] - hsd1111
2017-01-17 17:23:07,290 INFO [com.stsing.jedis.JedisClusterStsingUtil] - 12.99.108.172:7001
2017-01-17 17:23:07,290 INFO [com.stsing.jedis.JedisClusterStsingUtil] - hsd1111
2017-01-17 17:23:07,290 INFO [com.stsing.jedis.JedisClusterStsingUtil] - 12.99.108.171:7000
2017-01-17 17:23:07,306 INFO [com.stsing.jedis.JedisClusterStsingUtil] - hsd1111
2017-01-17 17:23:07,306 INFO [com.stsing.jedis.JedisClusterStsingUtil] - 12.99.108.171:7001
2017-01-17 17:23:07,322 INFO [com.stsing.jedis.JedisClusterStsingUtil] - hsd1111
2017-01-17 17:23:07,322 INFO [com.stsing.jedis.JedisClusterStsingUtil] - 12.99.108.171:7002
2017-01-17 17:23:07,322 INFO [com.stsing.jedis.JedisClusterStsingUtil] - hsd1111
2017-01-17 17:23:07,322 INFO [com.stsing.jedis.JedisClusterStsingUtil] - 12.99.108.172:7005
2017-01-17 17:23:07,322 INFO [com.stsing.jedis.JedisClusterStsingUtil] - hsd1111
2017-01-17 17:23:07,322 INFO [com.stsing.jedis.JedisClusterStsingUtil] - 12.99.108.171:7003
2017-01-17 17:23:07,322 INFO [com.stsing.jedis.JedisClusterStsingUtil] - hsd1111
2017-01-17 17:23:07,322 INFO [com.stsing.jedis.JedisClusterStsingUtil] - 12.99.108.171:7004
2017-01-17 17:23:07,322 INFO [com.stsing.jedis.JedisClusterStsingUtil] - hsd1111
2017-01-17 17:23:07,322 INFO [com.stsing.jedis.JedisClusterStsingUtil] - 12.99.108.172:7003
2017-01-17 17:23:07,322 INFO [com.stsing.jedis.JedisClusterStsingUtil] - hsd1111
2017-01-17 17:23:07,322 INFO [com.stsing.jedis.JedisClusterStsingUtil] - 12.99.108.172:7004
2017-01-17 17:23:07,322 INFO [com.stsing.jedis.JedisClusterStsingUtil] - hsd1111
2017-01-17 17:23:07,322 INFO [com.stsing.jedis.JedisClusterStsingUtil] - 12.99.108.171:7005
2017-01-17 17:23:07,322 INFO [com.stsing.jedis.JedisClusterStsingUtil] - hsd1111
2017-01-17 17:23:07,322 INFO [com.stsing.jedis.JedisClusterStsingUtil] - 12.99.108.172:7000
2017-01-17 17:23:07,322 INFO [com.stsing.jedis.JedisClusterStsingUtil] - hsd1111
2017-01-17 17:23:07,322 INFO [com.stsing.jedis.JedisClusterStsingUtil] - 12.99.108.172:7002
2017-01-17 17:23:07,322 INFO [com.stsing.jedis.JedisClusterStsingUtil] - hsd1111
2017-01-17 17:23:07,322 INFO [com.stsing.jedis.JedisClusterStsingUtil] - 12.99.108.172:7001
2017-01-17 17:23:07,322 INFO [com.stsing.jedis.JedisClusterStsingUtil] - hsd1111
2017-01-17 17:23:07,322 INFO [com.stsing.jedis.JedisClusterStsingUtil] - 12.99.108.171:7000
2017-01-17 17:23:07,322 INFO [com.stsing.jedis.JedisClusterStsingUtil] - hsd1111
2017-01-17 17:23:07,322 INFO [com.stsing.jedis.JedisClusterStsingUtil] - 12.99.108.171:7001
2017-01-17 17:23:07,337 INFO [com.stsing.jedis.JedisClusterStsingUtil] - hsd1111
2017-01-17 17:23:07,337 INFO [com.stsing.jedis.JedisClusterStsingUtil] - 12.99.108.171:7002
2017-01-17 17:23:07,337 INFO [com.stsing.jedis.JedisClusterStsingUtil] - hsd1111
2017-01-17 17:23:07,337 INFO [com.stsing.jedis.JedisClusterStsingUtil] - 12.99.108.172:7005
2017-01-17 17:23:07,337 INFO [com.stsing.jedis.JedisClusterStsingUtil] - hsd1111
2017-01-17 17:23:07,337 INFO [com.stsing.jedis.JedisClusterStsingUtil] - 12.99.108.171:7003
2017-01-17 17:23:07,337 INFO [com.stsing.jedis.JedisClusterStsingUtil] - hsd1111
2017-01-17 17:23:07,337 INFO [com.stsing.jedis.JedisClusterStsingUtil] - 12.99.108.171:7004
2017-01-17 17:23:07,337 INFO [com.stsing.jedis.JedisClusterStsingUtil] - hsd1111
2017-01-17 17:23:07,337 INFO [com.stsing.jedis.JedisClusterStsingUtil] - 12.99.108.172:7003
2017-01-17 17:23:07,337 INFO [com.stsing.jedis.JedisClusterStsingUtil] - hsd1111
2017-01-17 17:23:07,337 INFO [com.stsing.jedis.JedisClusterStsingUtil] - 12.99.108.172:7004
2017-01-17 17:23:07,337 INFO [com.stsing.jedis.JedisClusterStsingUtil] - hsd1111
2017-01-17 17:23:07,337 INFO [com.stsing.jedis.JedisClusterStsingUtil] - 12.99.108.171:7005
2017-01-17 17:23:07,337 INFO [com.stsing.jedis.JedisClusterStsingUtil] - hsd1111
2017-01-17 17:23:07,337 INFO [com.stsing.jedis.JedisClusterStsingUtil] - 12.99.108.172:7000
2017-01-17 17:23:07,337 INFO [com.stsing.jedis.JedisClusterStsingUtil] - hsd1111
2017-01-17 17:23:07,337 INFO [com.stsing.jedis.JedisClusterStsingUtil] - 12.99.108.172:7002
2017-01-17 17:23:07,337 INFO [com.stsing.jedis.JedisClusterStsingUtil] - hsd1111
2017-01-17 17:23:07,337 INFO [com.stsing.jedis.JedisClusterStsingUtil] - 12.99.108.172:7001
2017-01-17 17:23:07,353 INFO [com.stsing.jedis.JedisClusterStsingUtil] - hsd1111
2017-01-17 17:23:07,353 INFO [com.stsing.jedis.JedisClusterStsingUtil] - 12.99.108.171:7000
2017-01-17 17:23:07,353 INFO [com.stsing.jedis.JedisClusterStsingUtil] - hsd1111
2017-01-17 17:23:07,353 INFO [com.stsing.jedis.JedisClusterStsingUtil] - 12.99.108.171:7001
2017-01-17 17:23:07,353 INFO [com.stsing.jedis.JedisClusterStsingUtil] - hsd1111
2017-01-17 17:23:07,353 INFO [com.stsing.jedis.JedisClusterStsingUtil] - 12.99.108.171:7002
2017-01-17 17:23:07,368 INFO [com.stsing.jedis.JedisClusterStsingUtil] - hsd1111
2017-01-17 17:23:07,368 INFO [com.stsing.jedis.JedisClusterStsingUtil] - 12.99.108.172:7005
2017-01-17 17:23:07,368 INFO [com.stsing.jedis.JedisClusterStsingUtil] - hsd1111
2017-01-17 17:23:07,368 INFO [com.stsing.jedis.JedisClusterStsingUtil] - 12.99.108.171:7003
2017-01-17 17:23:07,368 INFO [com.stsing.jedis.JedisClusterStsingUtil] - hsd1111
2017-01-17 17:23:07,368 INFO [com.stsing.jedis.JedisClusterStsingUtil] - 12.99.108.171:7004
2017-01-17 17:23:07,368 INFO [com.stsing.jedis.JedisClusterStsingUtil] - hsd1111
2017-01-17 17:23:07,368 INFO [com.stsing.jedis.JedisClusterStsingUtil] - 12.99.108.172:7003
2017-01-17 17:23:07,368 INFO [com.stsing.jedis.JedisClusterStsingUtil] - hsd1111
2017-01-17 17:23:07,368 INFO [com.stsing.jedis.JedisClusterStsingUtil] - 12.99.108.172:7004
2017-01-17 17:23:07,368 INFO [com.stsing.jedis.JedisClusterStsingUtil] - hsd1111
2017-01-17 17:23:07,368 INFO [com.stsing.jedis.JedisClusterStsingUtil] - 12.99.108.171:7005
2017-01-17 17:23:07,368 INFO [com.stsing.jedis.JedisClusterStsingUtil] - hsd1111
2017-01-17 17:23:07,368 INFO [com.stsing.jedis.JedisClusterStsingUtil] - 12.99.108.172:7000
2017-01-17 17:23:07,368 INFO [com.stsing.jedis.JedisClusterStsingUtil] - hsd1111
2017-01-17 17:23:07,368 INFO [com.stsing.jedis.JedisClusterStsingUtil] - 12.99.108.172:7002
2017-01-17 17:23:07,384 INFO [com.stsing.jedis.JedisClusterStsingUtil] - hsd1111
2017-01-17 17:23:07,384 INFO [com.stsing.jedis.JedisClusterStsingUtil] - 12.99.108.172:7001
2017-01-17 17:23:07,384 INFO [com.stsing.jedis.JedisClusterStsingUtil] - hsd1111
2017-01-17 17:23:07,384 INFO [com.stsing.jedis.JedisClusterStsingUtil] - 12.99.108.171:7000
2017-01-17 17:23:07,384 INFO [com.stsing.jedis.JedisClusterStsingUtil] - hsd1111
2017-01-17 17:23:07,384 INFO [com.stsing.jedis.JedisClusterStsingUtil] - 12.99.108.171:7001
2017-01-17 17:23:07,462 INFO [com.stsing.job.JobRedisCache] - synchronized success : take 1920 ms
2017-01-17 17:23:26,153 INFO [com.stsing.job.JobRedisCache] - get data from redis  synchronize to oracle
2017-01-17 17:23:27,307 ERROR [com.stsing.jedis.JedisClusterUtil] - jedisCluster number : 12
2017-01-17 17:23:27,417 INFO [com.stsing.jedis.JedisClusterStsingUtil] - hsd1111
2017-01-17 17:23:27,417 INFO [com.stsing.jedis.JedisClusterStsingUtil] - 12.99.108.171:7002
2017-01-17 17:23:27,433 INFO [com.stsing.jedis.JedisClusterStsingUtil] - 12.99.108.172:7005
2017-01-17 17:23:27,449 INFO [com.stsing.jedis.JedisClusterStsingUtil] - 12.99.108.171:7003
2017-01-17 17:23:27,449 INFO [com.stsing.jedis.JedisClusterStsingUtil] - 12.99.108.171:7004
2017-01-17 17:23:27,449 INFO [com.stsing.jedis.JedisClusterStsingUtil] - 12.99.108.172:7003
2017-01-17 17:23:27,464 INFO [com.stsing.jedis.JedisClusterStsingUtil] - 12.99.108.172:7004
2017-01-17 17:23:27,464 INFO [com.stsing.jedis.JedisClusterStsingUtil] - 12.99.108.171:7005
2017-01-17 17:23:27,464 INFO [com.stsing.jedis.JedisClusterStsingUtil] - 12.99.108.172:7000
2017-01-17 17:23:27,464 INFO [com.stsing.jedis.JedisClusterStsingUtil] - 12.99.108.172:7002
2017-01-17 17:23:27,480 INFO [com.stsing.jedis.JedisClusterStsingUtil] - 12.99.108.172:7001
2017-01-17 17:23:27,480 INFO [com.stsing.jedis.JedisClusterStsingUtil] - 12.99.108.171:7000
2017-01-17 17:23:27,480 INFO [com.stsing.jedis.JedisClusterStsingUtil] - 12.99.108.171:7001
2017-01-17 17:23:27,651 INFO [com.stsing.jedis.JedisClusterStsingUtil] - hsd1111
2017-01-17 17:23:27,651 INFO [com.stsing.jedis.JedisClusterStsingUtil] - 12.99.108.171:7002
2017-01-17 17:23:27,651 INFO [com.stsing.jedis.JedisClusterStsingUtil] - 12.99.108.172:7005
2017-01-17 17:23:27,651 INFO [com.stsing.jedis.JedisClusterStsingUtil] - 12.99.108.171:7003
2017-01-17 17:23:27,651 INFO [com.stsing.jedis.JedisClusterStsingUtil] - 12.99.108.171:7004
2017-01-17 17:23:27,667 INFO [com.stsing.jedis.JedisClusterStsingUtil] - 12.99.108.172:7003
2017-01-17 17:23:27,667 INFO [com.stsing.jedis.JedisClusterStsingUtil] - 12.99.108.172:7004
2017-01-17 17:23:27,667 INFO [com.stsing.jedis.JedisClusterStsingUtil] - 12.99.108.171:7005
2017-01-17 17:23:27,667 INFO [com.stsing.jedis.JedisClusterStsingUtil] - 12.99.108.172:7000
2017-01-17 17:23:27,667 INFO [com.stsing.jedis.JedisClusterStsingUtil] - 12.99.108.172:7002
2017-01-17 17:23:27,667 INFO [com.stsing.jedis.JedisClusterStsingUtil] - 12.99.108.172:7001
2017-01-17 17:23:27,667 INFO [com.stsing.jedis.JedisClusterStsingUtil] - 12.99.108.171:7000
2017-01-17 17:23:27,667 INFO [com.stsing.jedis.JedisClusterStsingUtil] - 12.99.108.171:7001
2017-01-17 17:23:27,683 INFO [com.stsing.jedis.JedisClusterStsingUtil] - hsd1111
2017-01-17 17:23:27,683 INFO [com.stsing.jedis.JedisClusterStsingUtil] - 12.99.108.171:7002
2017-01-17 17:23:27,683 INFO [com.stsing.jedis.JedisClusterStsingUtil] - 12.99.108.172:7005
2017-01-17 17:23:27,683 INFO [com.stsing.jedis.JedisClusterStsingUtil] - 12.99.108.171:7003
2017-01-17 17:23:27,683 INFO [com.stsing.jedis.JedisClusterStsingUtil] - 12.99.108.171:7004
2017-01-17 17:23:27,683 INFO [com.stsing.jedis.JedisClusterStsingUtil] - 12.99.108.172:7003
2017-01-17 17:23:27,683 INFO [com.stsing.jedis.JedisClusterStsingUtil] - 12.99.108.172:7004
2017-01-17 17:23:27,683 INFO [com.stsing.jedis.JedisClusterStsingUtil] - 12.99.108.171:7005
2017-01-17 17:23:27,683 INFO [com.stsing.jedis.JedisClusterStsingUtil] - 12.99.108.172:7000
2017-01-17 17:23:27,683 INFO [com.stsing.jedis.JedisClusterStsingUtil] - 12.99.108.172:7002
2017-01-17 17:23:27,683 INFO [com.stsing.jedis.JedisClusterStsingUtil] - 12.99.108.172:7001
2017-01-17 17:23:27,683 INFO [com.stsing.jedis.JedisClusterStsingUtil] - 12.99.108.171:7000
2017-01-17 17:23:27,683 INFO [com.stsing.jedis.JedisClusterStsingUtil] - 12.99.108.171:7001
2017-01-17 17:23:27,698 INFO [com.stsing.jedis.JedisClusterStsingUtil] - hsd1111
2017-01-17 17:23:27,698 INFO [com.stsing.jedis.JedisClusterStsingUtil] - 12.99.108.171:7002
2017-01-17 17:23:27,698 INFO [com.stsing.jedis.JedisClusterStsingUtil] - 12.99.108.172:7005
2017-01-17 17:23:27,698 INFO [com.stsing.jedis.JedisClusterStsingUtil] - 12.99.108.171:7003
2017-01-17 17:23:27,698 INFO [com.stsing.jedis.JedisClusterStsingUtil] - 12.99.108.171:7004
2017-01-17 17:23:27,698 INFO [com.stsing.jedis.JedisClusterStsingUtil] - 12.99.108.172:7003
2017-01-17 17:23:27,698 INFO [com.stsing.jedis.JedisClusterStsingUtil] - 12.99.108.172:7004
2017-01-17 17:23:27,698 INFO [com.stsing.jedis.JedisClusterStsingUtil] - 12.99.108.171:7005
2017-01-17 17:23:27,698 INFO [com.stsing.jedis.JedisClusterStsingUtil] - 12.99.108.172:7000
2017-01-17 17:23:27,698 INFO [com.stsing.jedis.JedisClusterStsingUtil] - 12.99.108.172:7002
2017-01-17 17:23:27,698 INFO [com.stsing.jedis.JedisClusterStsingUtil] - 12.99.108.172:7001
2017-01-17 17:23:27,714 INFO [com.stsing.jedis.JedisClusterStsingUtil] - 12.99.108.171:7000
2017-01-17 17:23:27,714 INFO [com.stsing.jedis.JedisClusterStsingUtil] - 12.99.108.171:7001
2017-01-17 17:23:27,729 INFO [com.stsing.jedis.JedisClusterStsingUtil] - hsd1111
2017-01-17 17:23:27,729 INFO [com.stsing.jedis.JedisClusterStsingUtil] - 12.99.108.171:7002
2017-01-17 17:23:27,729 INFO [com.stsing.jedis.JedisClusterStsingUtil] - 12.99.108.172:7005
2017-01-17 17:23:27,729 INFO [com.stsing.jedis.JedisClusterStsingUtil] - 12.99.108.171:7003
2017-01-17 17:23:27,729 INFO [com.stsing.jedis.JedisClusterStsingUtil] - 12.99.108.171:7004
2017-01-17 17:23:27,729 INFO [com.stsing.jedis.JedisClusterStsingUtil] - 12.99.108.172:7003
2017-01-17 17:23:27,729 INFO [com.stsing.jedis.JedisClusterStsingUtil] - 12.99.108.172:7004
2017-01-17 17:23:27,729 INFO [com.stsing.jedis.JedisClusterStsingUtil] - 12.99.108.171:7005
2017-01-17 17:23:27,729 INFO [com.stsing.jedis.JedisClusterStsingUtil] - 12.99.108.172:7000
2017-01-17 17:23:27,729 INFO [com.stsing.jedis.JedisClusterStsingUtil] - 12.99.108.172:7002
2017-01-17 17:23:27,729 INFO [com.stsing.jedis.JedisClusterStsingUtil] - 12.99.108.172:7001
2017-01-17 17:23:27,729 INFO [com.stsing.jedis.JedisClusterStsingUtil] - 12.99.108.171:7000
2017-01-17 17:23:27,729 INFO [com.stsing.jedis.JedisClusterStsingUtil] - 12.99.108.171:7001
2017-01-17 17:23:27,745 INFO [com.stsing.jedis.JedisClusterStsingUtil] - hsd1111
2017-01-17 17:23:27,745 INFO [com.stsing.jedis.JedisClusterStsingUtil] - 12.99.108.171:7002
2017-01-17 17:23:27,745 INFO [com.stsing.jedis.JedisClusterStsingUtil] - 12.99.108.172:7005
2017-01-17 17:23:27,745 INFO [com.stsing.jedis.JedisClusterStsingUtil] - 12.99.108.171:7003
2017-01-17 17:23:27,761 INFO [com.stsing.jedis.JedisClusterStsingUtil] - 12.99.108.171:7004
2017-01-17 17:23:27,761 INFO [com.stsing.jedis.JedisClusterStsingUtil] - 12.99.108.172:7003
2017-01-17 17:23:27,761 INFO [com.stsing.jedis.JedisClusterStsingUtil] - 12.99.108.172:7004
2017-01-17 17:23:27,761 INFO [com.stsing.jedis.JedisClusterStsingUtil] - 12.99.108.171:7005
2017-01-17 17:23:27,761 INFO [com.stsing.jedis.JedisClusterStsingUtil] - 12.99.108.172:7000
2017-01-17 17:23:27,761 INFO [com.stsing.jedis.JedisClusterStsingUtil] - 12.99.108.172:7002
2017-01-17 17:23:27,761 INFO [com.stsing.jedis.JedisClusterStsingUtil] - 12.99.108.172:7001
2017-01-17 17:23:27,761 INFO [com.stsing.jedis.JedisClusterStsingUtil] - 12.99.108.171:7000
2017-01-17 17:23:27,761 INFO [com.stsing.jedis.JedisClusterStsingUtil] - 12.99.108.171:7001
2017-01-17 17:23:27,776 INFO [com.stsing.jedis.JedisClusterStsingUtil] - hsd1111
2017-01-17 17:23:27,776 INFO [com.stsing.jedis.JedisClusterStsingUtil] - 12.99.108.171:7002
2017-01-17 17:23:27,776 INFO [com.stsing.jedis.JedisClusterStsingUtil] - 12.99.108.172:7005
2017-01-17 17:23:27,776 INFO [com.stsing.jedis.JedisClusterStsingUtil] - 12.99.108.171:7003
2017-01-17 17:23:27,776 INFO [com.stsing.jedis.JedisClusterStsingUtil] - 12.99.108.171:7004
2017-01-17 17:23:27,776 INFO [com.stsing.jedis.JedisClusterStsingUtil] - 12.99.108.172:7003
2017-01-17 17:23:27,776 INFO [com.stsing.jedis.JedisClusterStsingUtil] - 12.99.108.172:7004
2017-01-17 17:23:27,776 INFO [com.stsing.jedis.JedisClusterStsingUtil] - 12.99.108.171:7005
2017-01-17 17:23:27,776 INFO [com.stsing.jedis.JedisClusterStsingUtil] - 12.99.108.172:7000
2017-01-17 17:23:27,792 INFO [com.stsing.jedis.JedisClusterStsingUtil] - 12.99.108.172:7002
2017-01-17 17:23:27,792 INFO [com.stsing.jedis.JedisClusterStsingUtil] - 12.99.108.172:7001
2017-01-17 17:23:27,792 INFO [com.stsing.jedis.JedisClusterStsingUtil] - 12.99.108.171:7000
2017-01-17 17:23:27,792 INFO [com.stsing.jedis.JedisClusterStsingUtil] - 12.99.108.171:7001
2017-01-17 17:23:27,807 INFO [com.stsing.jedis.JedisClusterStsingUtil] - hsd1111
2017-01-17 17:23:27,807 INFO [com.stsing.jedis.JedisClusterStsingUtil] - 12.99.108.171:7002
2017-01-17 17:23:27,807 INFO [com.stsing.jedis.JedisClusterStsingUtil] - 12.99.108.172:7005
2017-01-17 17:23:27,807 INFO [com.stsing.jedis.JedisClusterStsingUtil] - 12.99.108.171:7003
2017-01-17 17:23:27,807 INFO [com.stsing.jedis.JedisClusterStsingUtil] - 12.99.108.171:7004
2017-01-17 17:23:27,807 INFO [com.stsing.jedis.JedisClusterStsingUtil] - 12.99.108.172:7003
2017-01-17 17:23:27,807 INFO [com.stsing.jedis.JedisClusterStsingUtil] - 12.99.108.172:7004
2017-01-17 17:23:27,807 INFO [com.stsing.jedis.JedisClusterStsingUtil] - 12.99.108.171:7005
2017-01-17 17:23:27,807 INFO [com.stsing.jedis.JedisClusterStsingUtil] - 12.99.108.172:7000
2017-01-17 17:23:27,807 INFO [com.stsing.jedis.JedisClusterStsingUtil] - 12.99.108.172:7002
2017-01-17 17:23:27,807 INFO [com.stsing.jedis.JedisClusterStsingUtil] - 12.99.108.172:7001
2017-01-17 17:23:27,807 INFO [com.stsing.jedis.JedisClusterStsingUtil] - 12.99.108.171:7000
2017-01-17 17:23:27,823 INFO [com.stsing.jedis.JedisClusterStsingUtil] - 12.99.108.171:7001
2017-01-17 17:23:27,839 INFO [com.stsing.jedis.JedisClusterStsingUtil] - hsd1111
2017-01-17 17:23:27,839 INFO [com.stsing.jedis.JedisClusterStsingUtil] - 12.99.108.171:7002
2017-01-17 17:23:27,839 INFO [com.stsing.jedis.JedisClusterStsingUtil] - 12.99.108.172:7005
2017-01-17 17:23:27,839 INFO [com.stsing.jedis.JedisClusterStsingUtil] - 12.99.108.171:7003
2017-01-17 17:23:27,839 INFO [com.stsing.jedis.JedisClusterStsingUtil] - 12.99.108.171:7004
2017-01-17 17:23:27,839 INFO [com.stsing.jedis.JedisClusterStsingUtil] - 12.99.108.172:7003
2017-01-17 17:23:27,839 INFO [com.stsing.jedis.JedisClusterStsingUtil] - 12.99.108.172:7004
2017-01-17 17:23:27,839 INFO [com.stsing.jedis.JedisClusterStsingUtil] - 12.99.108.171:7005
2017-01-17 17:23:27,839 INFO [com.stsing.jedis.JedisClusterStsingUtil] - 12.99.108.172:7000
2017-01-17 17:23:27,839 INFO [com.stsing.jedis.JedisClusterStsingUtil] - 12.99.108.172:7002
2017-01-17 17:23:27,839 INFO [com.stsing.jedis.JedisClusterStsingUtil] - 12.99.108.172:7001
2017-01-17 17:23:27,839 INFO [com.stsing.jedis.JedisClusterStsingUtil] - 12.99.108.171:7000
2017-01-17 17:23:27,839 INFO [com.stsing.jedis.JedisClusterStsingUtil] - 12.99.108.171:7001
2017-01-17 17:23:27,854 INFO [com.stsing.jedis.JedisClusterStsingUtil] - hsd1111
2017-01-17 17:23:27,854 INFO [com.stsing.jedis.JedisClusterStsingUtil] - 12.99.108.171:7002
2017-01-17 17:23:27,854 INFO [com.stsing.jedis.JedisClusterStsingUtil] - 12.99.108.172:7005
2017-01-17 17:23:27,854 INFO [com.stsing.jedis.JedisClusterStsingUtil] - 12.99.108.171:7003
2017-01-17 17:23:27,870 INFO [com.stsing.jedis.JedisClusterStsingUtil] - 12.99.108.171:7004
2017-01-17 17:23:27,870 INFO [com.stsing.jedis.JedisClusterStsingUtil] - 12.99.108.172:7003
2017-01-17 17:23:27,870 INFO [com.stsing.jedis.JedisClusterStsingUtil] - 12.99.108.172:7004
2017-01-17 17:23:27,870 INFO [com.stsing.jedis.JedisClusterStsingUtil] - 12.99.108.171:7005
2017-01-17 17:23:27,870 INFO [com.stsing.jedis.JedisClusterStsingUtil] - 12.99.108.172:7000
2017-01-17 17:23:27,870 INFO [com.stsing.jedis.JedisClusterStsingUtil] - 12.99.108.172:7002
2017-01-17 17:23:27,870 INFO [com.stsing.jedis.JedisClusterStsingUtil] - 12.99.108.172:7001
2017-01-17 17:23:27,870 INFO [com.stsing.jedis.JedisClusterStsingUtil] - 12.99.108.171:7000
2017-01-17 17:23:27,870 INFO [com.stsing.jedis.JedisClusterStsingUtil] - 12.99.108.171:7001
2017-01-17 17:23:27,885 INFO [com.stsing.jedis.JedisClusterStsingUtil] - hsd1111
2017-01-17 17:23:27,885 INFO [com.stsing.jedis.JedisClusterStsingUtil] - 12.99.108.171:7002
2017-01-17 17:23:27,885 INFO [com.stsing.jedis.JedisClusterStsingUtil] - 12.99.108.172:7005
2017-01-17 17:23:27,885 INFO [com.stsing.jedis.JedisClusterStsingUtil] - 12.99.108.171:7003
2017-01-17 17:23:27,885 INFO [com.stsing.jedis.JedisClusterStsingUtil] - 12.99.108.171:7004
2017-01-17 17:23:27,885 INFO [com.stsing.jedis.JedisClusterStsingUtil] - 12.99.108.172:7003
2017-01-17 17:23:27,885 INFO [com.stsing.jedis.JedisClusterStsingUtil] - 12.99.108.172:7004
2017-01-17 17:23:27,885 INFO [com.stsing.jedis.JedisClusterStsingUtil] - 12.99.108.171:7005
2017-01-17 17:23:27,885 INFO [com.stsing.jedis.JedisClusterStsingUtil] - 12.99.108.172:7000
2017-01-17 17:23:27,885 INFO [com.stsing.jedis.JedisClusterStsingUtil] - 12.99.108.172:7002
2017-01-17 17:23:27,885 INFO [com.stsing.jedis.JedisClusterStsingUtil] - 12.99.108.172:7001
2017-01-17 17:23:27,885 INFO [com.stsing.jedis.JedisClusterStsingUtil] - 12.99.108.171:7000
2017-01-17 17:23:27,885 INFO [com.stsing.jedis.JedisClusterStsingUtil] - 12.99.108.171:7001
2017-01-17 17:23:27,901 INFO [com.stsing.jedis.JedisClusterStsingUtil] - hsd1111
2017-01-17 17:23:27,901 INFO [com.stsing.jedis.JedisClusterStsingUtil] - 12.99.108.171:7002
2017-01-17 17:23:27,901 INFO [com.stsing.jedis.JedisClusterStsingUtil] - 12.99.108.172:7005
2017-01-17 17:23:27,901 INFO [com.stsing.jedis.JedisClusterStsingUtil] - 12.99.108.171:7003
2017-01-17 17:23:27,901 INFO [com.stsing.jedis.JedisClusterStsingUtil] - 12.99.108.171:7004
2017-01-17 17:23:27,901 INFO [com.stsing.jedis.JedisClusterStsingUtil] - 12.99.108.172:7003
2017-01-17 17:23:27,917 INFO [com.stsing.jedis.JedisClusterStsingUtil] - 12.99.108.172:7004
2017-01-17 17:23:27,917 INFO [com.stsing.jedis.JedisClusterStsingUtil] - 12.99.108.171:7005
2017-01-17 17:23:27,917 INFO [com.stsing.jedis.JedisClusterStsingUtil] - 12.99.108.172:7000
2017-01-17 17:23:27,917 INFO [com.stsing.jedis.JedisClusterStsingUtil] - 12.99.108.172:7002
2017-01-17 17:23:27,917 INFO [com.stsing.jedis.JedisClusterStsingUtil] - 12.99.108.172:7001
2017-01-17 17:23:27,917 INFO [com.stsing.jedis.JedisClusterStsingUtil] - 12.99.108.171:7000
2017-01-17 17:23:27,917 INFO [com.stsing.jedis.JedisClusterStsingUtil] - 12.99.108.171:7001
2017-01-17 17:23:27,932 INFO [com.stsing.jedis.JedisClusterStsingUtil] - hsd1111
2017-01-17 17:23:27,932 INFO [com.stsing.jedis.JedisClusterStsingUtil] - 12.99.108.171:7002
2017-01-17 17:23:27,932 INFO [com.stsing.jedis.JedisClusterStsingUtil] - 12.99.108.172:7005
2017-01-17 17:23:27,932 INFO [com.stsing.jedis.JedisClusterStsingUtil] - 12.99.108.171:7003
2017-01-17 17:23:27,932 INFO [com.stsing.jedis.JedisClusterStsingUtil] - 12.99.108.171:7004
2017-01-17 17:23:27,932 INFO [com.stsing.jedis.JedisClusterStsingUtil] - 12.99.108.172:7003
2017-01-17 17:23:27,932 INFO [com.stsing.jedis.JedisClusterStsingUtil] - 12.99.108.172:7004
2017-01-17 17:23:27,932 INFO [com.stsing.jedis.JedisClusterStsingUtil] - 12.99.108.171:7005
2017-01-17 17:23:27,932 INFO [com.stsing.jedis.JedisClusterStsingUtil] - 12.99.108.172:7000
2017-01-17 17:23:27,932 INFO [com.stsing.jedis.JedisClusterStsingUtil] - 12.99.108.172:7002
2017-01-17 17:23:27,948 INFO [com.stsing.jedis.JedisClusterStsingUtil] - 12.99.108.172:7001
2017-01-17 17:23:27,948 INFO [com.stsing.jedis.JedisClusterStsingUtil] - 12.99.108.171:7000
2017-01-17 17:23:27,948 INFO [com.stsing.jedis.JedisClusterStsingUtil] - 12.99.108.171:7001
2017-01-17 17:23:27,948 INFO [com.stsing.jedis.JedisClusterStsingUtil] - hsd1111
2017-01-17 17:23:27,948 INFO [com.stsing.jedis.JedisClusterStsingUtil] - 12.99.108.171:7002
2017-01-17 17:23:27,948 INFO [com.stsing.jedis.JedisClusterStsingUtil] - 12.99.108.172:7005
2017-01-17 17:23:27,948 INFO [com.stsing.jedis.JedisClusterStsingUtil] - 12.99.108.171:7003
2017-01-17 17:23:27,948 INFO [com.stsing.jedis.JedisClusterStsingUtil] - 12.99.108.171:7004
2017-01-17 17:23:27,948 INFO [com.stsing.jedis.JedisClusterStsingUtil] - 12.99.108.172:7003
2017-01-17 17:23:27,963 INFO [com.stsing.jedis.JedisClusterStsingUtil] - 12.99.108.172:7004
2017-01-17 17:23:27,963 INFO [com.stsing.jedis.JedisClusterStsingUtil] - 12.99.108.171:7005
2017-01-17 17:23:27,963 INFO [com.stsing.jedis.JedisClusterStsingUtil] - 12.99.108.172:7000
2017-01-17 17:23:27,963 INFO [com.stsing.jedis.JedisClusterStsingUtil] - 12.99.108.172:7002
2017-01-17 17:23:27,963 INFO [com.stsing.jedis.JedisClusterStsingUtil] - 12.99.108.172:7001
2017-01-17 17:23:27,963 INFO [com.stsing.jedis.JedisClusterStsingUtil] - 12.99.108.171:7000
2017-01-17 17:23:27,979 INFO [com.stsing.jedis.JedisClusterStsingUtil] - 12.99.108.171:7001
2017-01-17 17:23:27,995 INFO [com.stsing.jedis.JedisClusterStsingUtil] - hsd1111
2017-01-17 17:23:27,995 INFO [com.stsing.jedis.JedisClusterStsingUtil] - 12.99.108.171:7002
2017-01-17 17:23:27,995 INFO [com.stsing.jedis.JedisClusterStsingUtil] - 12.99.108.172:7005
2017-01-17 17:23:27,995 INFO [com.stsing.jedis.JedisClusterStsingUtil] - 12.99.108.171:7003
2017-01-17 17:23:28,010 INFO [com.stsing.jedis.JedisClusterStsingUtil] - 12.99.108.171:7004
2017-01-17 17:23:28,010 INFO [com.stsing.jedis.JedisClusterStsingUtil] - 12.99.108.172:7003
2017-01-17 17:23:28,010 INFO [com.stsing.jedis.JedisClusterStsingUtil] - 12.99.108.172:7004
2017-01-17 17:23:28,010 INFO [com.stsing.jedis.JedisClusterStsingUtil] - 12.99.108.171:7005
2017-01-17 17:23:28,010 INFO [com.stsing.jedis.JedisClusterStsingUtil] - 12.99.108.172:7000
2017-01-17 17:23:28,010 INFO [com.stsing.jedis.JedisClusterStsingUtil] - 12.99.108.172:7002
2017-01-17 17:23:28,010 INFO [com.stsing.jedis.JedisClusterStsingUtil] - 12.99.108.172:7001
2017-01-17 17:23:28,010 INFO [com.stsing.jedis.JedisClusterStsingUtil] - 12.99.108.171:7000
2017-01-17 17:23:28,010 INFO [com.stsing.jedis.JedisClusterStsingUtil] - 12.99.108.171:7001
2017-01-17 17:23:28,104 INFO [com.stsing.job.JobRedisCache] - synchronized success : take 1951 ms
